Washington Metropolitan Area Transit Authority API • metro
…
The WMATA also provides a demo key to try out the various features of the API. This key should never be used in production, it is rate limited and subject to change at any time.

As of February 2021, the demo key can be used like this:

Sys.setenv("WMATA_KEY" = "e13626d03d8e4c03ac07f95541b3091b")

Example

library(metro)

Functions return data frames for easy analysis.

rail_stations(LineCode = "RD")
#> # A tibble: 27 x 8
#>    StationCode StationName                 Lat   Lon Street                City     State Zip  
#>    <chr>       <chr>                     <dbl> <dbl> <chr>                 <chr>    <chr> <chr>
#>  1 A01         Metro Center               38.9 -77.0 607 13th St. NW       Washing… DC    20005
#>  2 A02         Farragut North             38.9 -77.0 1001 Connecticut Ave… Washing… DC    20036
#>  3 A03         Dupont Circle              38.9 -77.0 1525 20th St. NW      Washing… DC    20036
#>  4 A04         Woodley Park-Zoo/Adams M…  38.9 -77.1 2700 Connecticut Ave… Washing… DC    20008
#>  5 A05         Cleveland Park             38.9 -77.1 3599 Connecticut Ave… Washing… DC    20008
#>  6 A06         Van Ness-UDC               38.9 -77.1 4200 Connecticut Ave… Washing… DC    20008
#>  7 A07         Tenleytown-AU              38.9 -77.1 4501 Wisconsin Avenu… Washing… DC    20016
#>  8 A08         Friendship Heights         39.0 -77.1 5337 Wisconsin Avenu… Washing… DC    20015
#>  9 A09         Bethesda                   39.0 -77.1 7450 Wisconsin Avenue Bethesda MD    20814
#> 10 A10         Medical Center             39.0 -77.1 8810 Rockville Pike   Bethesda MD    20814
#> # … with 17 more rows
…
Functions that always return the same data have that data saved as objects.

metro_stops # bus_stops() for live
#> # A tibble: 9,044 x 5
#>    StopID  Name                                                Lon   Lat Routes   
#>    <chr>   <chr>                                             <dbl> <dbl> <list>   
#>  1 1000001 SHEPHERD PKY SW + SHEPHERD PKY SW                 -77.0  38.8 <chr [3]>
#>  2 1000003 SHEPHERD PKY SW + DC VILLAGE LN                   -77.0  38.8 <chr [3]>
#>  3 1000004 M L KING AVE + JOLIET ST                          -77.0  38.8 <chr [5]>
#>  4 1000005 SHEPHERD PKWY + FIRE DEPT TRNG CTR                -77.0  38.8 <chr [3]>
#>  5 1000006 SHEPHERD PKY SW + FIRE DEPARTMENT TRAINING CENTER -77.0  38.8 <chr [3]>
#>  6 1000007 IRVINGTON ST SW + MARTIN LUTHER KING JR AVE SW    -77.0  38.8 <chr [6]>
#>  7 1000008 IRVINGTON ST + IVANHOE ST                         -77.0  38.8 <chr [6]>
#>  8 1000009 SOUTHERN AVE SE + S CAPITOL ST SE                 -77.0  38.8 <chr [1]>
#>  9 1000010 MARTIN LUTHER KING JR AVE SW + #4660              -77.0  38.8 <chr [5]>
#> 10 1000012 MARTIN LUTHER KING JR AVE SW + BLUE PLAINS DR SW  -77.0  38.8 <chr [6]>
#> # … with 9,034 more rows
…
