…
``` r
Sys.setenv("WMATA_KEY" = "e13626d03d8e4c03ac07f95541b3091b")
```

## Example

``` r
library(metro)
```

All functions return data frames for easy analysis.

``` r
rail_stations(line = "RD")
#> # A tibble: 27 x 10
#>    station name                txfer lines      lat   lon street            city    state   zip
#>    <chr>   <chr>               <chr> <list>   <dbl> <dbl> <chr>             <chr>   <chr> <int>
#>  1 A01     Metro Center        C01   <chr [1…  38.9 -77.0 607 13th St. NW   Washin… DC    20005
#>  2 A02     Farragut North      <NA>  <chr [1…  38.9 -77.0 1001 Connecticut… Washin… DC    20036
#>  3 A03     Dupont Circle       <NA>  <chr [1…  38.9 -77.0 1525 20th St. NW  Washin… DC    20036
#>  4 A04     Woodley Park-Zoo/A… <NA>  <chr [1…  38.9 -77.1 2700 Connecticut… Washin… DC    20008
#>  5 A05     Cleveland Park      <NA>  <chr [1…  38.9 -77.1 3599 Connecticut… Washin… DC    20008
#>  6 A06     Van Ness-UDC        <NA>  <chr [1…  38.9 -77.1 4200 Connecticut… Washin… DC    20008
#>  7 A07     Tenleytown-AU       <NA>  <chr [1…  38.9 -77.1 4501 Wisconsin A… Washin… DC    20016
#>  8 A08     Friendship Heights  <NA>  <chr [1…  39.0 -77.1 5337 Wisconsin A… Washin… DC    20015
#>  9 A09     Bethesda            <NA>  <chr [1…  39.0 -77.1 7450 Wisconsin A… Bethes… MD    20814
#> 10 A10     Medical Center      <NA>  <chr [1…  39.0 -77.1 8810 Rockville P… Bethes… MD    20814
#> # … with 17 more rows
```
…
